{
  "code": 1,
  "success": true,
  "message": "成功",
  "result": {
    "pageSize": 10,
    "totalCount": 11,
    "currentPage": 1,
    "totalPage": 2,
    "datas": [{
      "id": 85,
      "type": 1,
      "typeText": "预约产品",
      "channel": 2,
      "channelText": "服务号",
      "content": "预约关一个bug提两bug",
      "createDate": "2017-09-29 17:42",
      "status": 0,
      "statusText": "未处理",
      "processUserId": null,
      "processUserName": null,
      "processDate": null,
      "fpId": 14,
      "canProcess": false
    }, {
      "id": 84,
      "type": 1,
      "typeText": "预约产品",
      "channel": 2,
      "channelText": "服务号",
      "content": "预约私募基金——王奶奶的故事",
      "createDate": "2017-09-29 17:42",
      "status": 0,
      "statusText": "未处理",
      "processUserId": null,
      "processUserName": null,
      "processDate": null,
      "fpId": 14,
      "canProcess": false
    }, {
      "id": 83,
      "type": 1,
      "typeText": "预约产品",
      "channel": 2,
      "channelText": "服务号",
      "content": "预约阳光私募-唯快不破投资基金，看名字就知道是很阳光的产品了",
      "createDate": "2017-09-29 17:42",
      "status": 0,
      "statusText": "未处理",
      "processUserId": null,
      "processUserName": null,
      "processDate": null,
      "fpId": 14,
      "canProcess": false
    }, {
      "id": 82,
      "type": 1,
      "typeText": "预约产品",
      "channel": 2,
      "channelText": "服务号",
      "content": "预约阳光私募-唯快不破投资基金，看名字就知道是很阳光的产品了",
      "createDate": "2017-09-29 17:42",
      "status": 0,
      "statusText": "未处理",
      "processUserId": null,
      "processUserName": null,
      "processDate": null,
      "fpId": 14,
      "canProcess": false
    }, {
      "id": 81,
      "type": 1,
      "typeText": "预约产品",
      "channel": 2,
      "channelText": "服务号",
      "content": "预约关一个bug提两bug",
      "createDate": "2017-09-29 17:41",
      "status": 0,
      "statusText": "未处理",
      "processUserId": null,
      "processUserName": null,
      "processDate": null,
      "fpId": 14,
      "canProcess": false
    }, {
      "id": 80,
      "type": 1,
      "typeText": "预约产品",
      "channel": 2,
      "channelText": "服务号",
      "content": "预约阳光私募-唯快不破投资基金，看名字就知道是很阳光的产品了",
      "createDate": "2017-09-29 17:41",
      "status": 0,
      "statusText": "未处理",
      "processUserId": null,
      "processUserName": null,
      "processDate": null,
      "fpId": 14,
      "canProcess": false
    }, {
      "id": 79,
      "type": 1,
      "typeText": "预约产品",
      "channel": 2,
      "channelText": "服务号",
      "content": "预约阳光私募-唯快不破投资基金，看名字就知道是很阳光的产品了",
      "createDate": "2017-09-29 17:41",
      "status": 0,
      "statusText": "未处理",
      "processUserId": null,
      "processUserName": null,
      "processDate": null,
      "fpId": 14,
      "canProcess": false
    }, {
      "id": 78,
      "type": 1,
      "typeText": "预约产品",
      "channel": 2,
      "channelText": "服务号",
      "content": "预约阳光私募-唯快不破投资基金，看名字就知道是很阳光的产品了",
      "createDate": "2017-09-29 17:41",
      "status": 0,
      "statusText": "未处理",
      "processUserId": null,
      "processUserName": null,
      "processDate": null,
      "fpId": 14,
      "canProcess": false
    }, {
      "id": 71,
      "type": 1,
      "typeText": "预约产品",
      "channel": 2,
      "channelText": "服务号",
      "content": "预约阳光私募-唯快不破投资基金，看名字就知道是很阳光的产品了",
      "createDate": "2017-09-29 16:12",
      "status": 0,
      "statusText": "未处理",
      "processUserId": null,
      "processUserName": null,
      "processDate": null,
      "fpId": 14,
      "canProcess": false
    }, {
      "id": 70,
      "type": 1,
      "typeText": "预约产品",
      "channel": 2,
      "channelText": "服务号",
      "content": "预约阳光私募-唯快不破投资基金，看名字就知道是很阳光的产品了",
      "createDate": "2017-09-29 16:12",
      "status": 0,
      "statusText": "未处理",
      "processUserId": null,
      "processUserName": null,
      "processDate": null,
      "fpId": 14,
      "canProcess": false
    }],
    "map": null
  }
}
