{
    "code": 1,
    "success": true,
    "message": "成功",
    "result": {
        "pageSize": 10,
        "totalCount": 45,
        "currentPage": 1,
        "totalPage": 5,
        "datas": [{
            "id": 6720,
            "name": "奔奔_100万",
            "customerId": 49808,
            "consultId": null,
            "money": null,
            "remark": null,
            "status": 30,
            "closed": 1,
            "deleted": null,
            "creatorId": -1,
            "expectPayTime": null,
            "createTime": "2017-06-12 09:29:12",
            "updaterId": null,
            "updateTime": null,
            "followId": null,
            "source": null,
            "preferenceCodes": null,
            "investmentType": null,
            "realName": "奔奔",
            "userId": 1781,
            "mobile": "18603038180",
            "sex": "男",
            "userName": null,
            "creatorName": "系统自建",
            "customerStatus": null,
            "customerTypeText": null,
            "sourceCode": "front.zcmall",
            "deal": false,
            "dealText": null,
            "channelSource": "default_channel",
            "confirmId": null,
            "confirmName": null,
            "reservationStatus": null,
            "reservationStatusName": "未预约",
            "channelSourceText": "自然流量",
            "selectProductInfos": null,
            "productInfoModels": null,
            "selectedProductManagerModal": null,
            "productName": null,
            "productType": null,
            "productTypeText": "",
            "statusText": "可跟进",
            "preferenceCodesText": null,
            "currencyCode": null
        }, {
            "id": 6626,
            "name": "奔9_运营添加_100万",
            "customerId": 49818,
            "consultId": null,
            "money": 100.0,
            "remark": null,
            "status": 80,
            "closed": 1,
            "deleted": null,
            "creatorId": -1,
            "expectPayTime": null,
            "createTime": "2017-05-16 09:53:29",
            "updaterId": null,
            "updateTime": null,
            "followId": null,
            "source": null,
            "preferenceCodes": null,
            "investmentType": null,
            "realName": "奔9_运营添加",
            "userId": 1781,
            "mobile": "18602062233",
            "sex": "--",
            "userName": null,
            "creatorName": "系统自建",
            "customerStatus": null,
            "customerTypeText": null,
            "sourceCode": "front.zcmall",
            "deal": false,
            "dealText": null,
            "channelSource": "baidu",
            "confirmId": null,
            "confirmName": null,
            "reservationStatus": 4,
            "reservationStatusName": "已转订单",
            "channelSourceText": null,
            "selectProductInfos": null,
            "productInfoModels": null,
            "selectedProductManagerModal": null,
            "productName": "首誉光控-黔东南州凯宏资产专项资产管理计划1号(2期)(n期)test",
            "productType": "pro_type_fix",
            "productTypeText": "信托资管",
            "statusText": "创建订单",
            "preferenceCodesText": null,
            "currencyCode": "CNY"
        }, {
            "id": 6290,
            "name": "奔5_200万",
            "customerId": 49811,
            "consultId": null,
            "money": 200.0,
            "remark": null,
            "status": 80,
            "closed": 1,
            "deleted": null,
            "creatorId": -1,
            "expectPayTime": null,
            "createTime": "2017-03-29 17:05:25",
            "updaterId": null,
            "updateTime": null,
            "followId": null,
            "source": null,
            "preferenceCodes": null,
            "investmentType": null,
            "realName": "奔5",
            "userId": 1781,
            "mobile": "18707553300",
            "sex": "男",
            "userName": null,
            "creatorName": "系统自建",
            "customerStatus": null,
            "customerTypeText": null,
            "sourceCode": "front.zcmall",
            "deal": false,
            "dealText": null,
            "channelSource": "360.search",
            "confirmId": null,
            "confirmName": null,
            "reservationStatus": 4,
            "reservationStatusName": "已转订单",
            "channelSourceText": "360搜索",
            "selectProductInfos": null,
            "productInfoModels": null,
            "selectedProductManagerModal": null,
            "productName": "XX创新智能股权投资基金(3期)",
            "productType": "pro_type_stock",
            "productTypeText": "私募股权",
            "statusText": "创建订单",
            "preferenceCodesText": null,
            "currencyCode": "CNY"
        }, {
            "id": 6220,
            "name": "13597540410_111222万",
            "customerId": 52794,
            "consultId": null,
            "money": 111222.0,
            "remark": null,
            "status": 80,
            "closed": 1,
            "deleted": null,
            "creatorId": -1,
            "expectPayTime": null,
            "createTime": "2017-03-28 09:45:25",
            "updaterId": null,
            "updateTime": null,
            "followId": null,
            "source": null,
            "preferenceCodes": null,
            "investmentType": null,
            "realName": "13597540410",
            "userId": 1781,
            "mobile": "13597540410",
            "sex": "--",
            "userName": null,
            "creatorName": "系统自建",
            "customerStatus": null,
            "customerTypeText": null,
            "sourceCode": "front.zcmall",
            "deal": false,
            "dealText": null,
            "channelSource": "default_channel",
            "confirmId": null,
            "confirmName": null,
            "reservationStatus": 4,
            "reservationStatusName": "已转订单",
            "channelSourceText": "自然流量",
            "selectProductInfos": null,
            "productInfoModels": null,
            "selectedProductManagerModal": null,
            "productName": "泰复9号股权投资基金3",
            "productType": "pro_type_stock",
            "productTypeText": "私募股权",
            "statusText": "创建订单",
            "preferenceCodesText": null,
            "currencyCode": "USD"
        }, {
            "id": 6208,
            "name": "奔17_2121万",
            "customerId": 52884,
            "consultId": null,
            "money": 2121.0,
            "remark": null,
            "status": 80,
            "closed": 1,
            "deleted": null,
            "creatorId": -1,
            "expectPayTime": null,
            "createTime": "2017-03-27 16:34:05",
            "updaterId": null,
            "updateTime": null,
            "followId": null,
            "source": null,
            "preferenceCodes": null,
            "investmentType": null,
            "realName": "奔17",
            "userId": 1781,
            "mobile": "18609098877",
            "sex": "男",
            "userName": null,
            "creatorName": "系统自建",
            "customerStatus": null,
            "customerTypeText": null,
            "sourceCode": "client.source.tel400",
            "deal": false,
            "dealText": null,
            "channelSource": "tel400",
            "confirmId": null,
            "confirmName": null,
            "reservationStatus": 4,
            "reservationStatusName": "已转订单",
            "channelSourceText": "400电话",
            "selectProductInfos": null,
            "productInfoModels": null,
            "selectedProductManagerModal": null,
            "productName": "重复重复重复",
            "productType": "pro_type_stock",
            "productTypeText": "私募股权",
            "statusText": "创建订单",
            "preferenceCodesText": null,
            "currencyCode": "CNY"
        }, {
            "id": 6176,
            "name": "test_1255万",
            "customerId": 52798,
            "consultId": null,
            "money": 1255.0,
            "remark": null,
            "status": 80,
            "closed": 1,
            "deleted": null,
            "creatorId": -1,
            "expectPayTime": null,
            "createTime": "2017-03-27 11:07:46",
            "updaterId": null,
            "updateTime": null,
            "followId": null,
            "source": null,
            "preferenceCodes": null,
            "investmentType": null,
            "realName": "test",
            "userId": 1781,
            "mobile": "13510189353",
            "sex": "--",
            "userName": null,
            "creatorName": "系统自建",
            "customerStatus": null,
            "customerTypeText": null,
            "sourceCode": "front.zcmall",
            "deal": false,
            "dealText": null,
            "channelSource": "default_channel",
            "confirmId": null,
            "confirmName": null,
            "reservationStatus": 4,
            "reservationStatusName": "已转订单",
            "channelSourceText": "自然流量",
            "selectProductInfos": null,
            "productInfoModels": null,
            "selectedProductManagerModal": null,
            "productName": "重复重复重复",
            "productType": "pro_type_stock",
            "productTypeText": "私募股权",
            "statusText": "创建订单",
            "preferenceCodesText": null,
            "currencyCode": "CNY"
        }, {
            "id": 6157,
            "name": "13597540410_12121333万",
            "customerId": 52794,
            "consultId": null,
            "money": 1.2121333E7,
            "remark": null,
            "status": 80,
            "closed": 1,
            "deleted": null,
            "creatorId": -1,
            "expectPayTime": null,
            "createTime": "2017-03-24 16:15:30",
            "updaterId": null,
            "updateTime": null,
            "followId": null,
            "source": null,
            "preferenceCodes": null,
            "investmentType": null,
            "realName": "13597540410",
            "userId": 1781,
            "mobile": "13597540410",
            "sex": "--",
            "userName": null,
            "creatorName": "系统自建",
            "customerStatus": null,
            "customerTypeText": null,
            "sourceCode": "front.zcmall",
            "deal": false,
            "dealText": null,
            "channelSource": "default_channel",
            "confirmId": null,
            "confirmName": null,
            "reservationStatus": 4,
            "reservationStatusName": "已转订单",
            "channelSourceText": "自然流量",
            "selectProductInfos": null,
            "productInfoModels": null,
            "selectedProductManagerModal": null,
            "productName": "重复重复重复",
            "productType": "pro_type_stock",
            "productTypeText": "私募股权",
            "statusText": "创建订单",
            "preferenceCodesText": null,
            "currencyCode": "CNY"
        }, {
            "id": 6156,
            "name": "奔17_12121万",
            "customerId": 52884,
            "consultId": null,
            "money": 12121.0,
            "remark": null,
            "status": 80,
            "closed": 1,
            "deleted": null,
            "creatorId": -1,
            "expectPayTime": null,
            "createTime": "2017-03-24 16:14:10",
            "updaterId": null,
            "updateTime": null,
            "followId": null,
            "source": null,
            "preferenceCodes": null,
            "investmentType": null,
            "realName": "奔17",
            "userId": 1781,
            "mobile": "18609098877",
            "sex": "男",
            "userName": null,
            "creatorName": "系统自建",
            "customerStatus": null,
            "customerTypeText": null,
            "sourceCode": "client.source.tel400",
            "deal": false,
            "dealText": null,
            "channelSource": "tel400",
            "confirmId": null,
            "confirmName": null,
            "reservationStatus": 4,
            "reservationStatusName": "已转订单",
            "channelSourceText": "400电话",
            "selectProductInfos": null,
            "productInfoModels": null,
            "selectedProductManagerModal": null,
            "productName": "重复重复重复",
            "productType": "pro_type_stock",
            "productTypeText": "私募股权",
            "statusText": "创建订单",
            "preferenceCodesText": null,
            "currencyCode": "CNY"
        }, {
            "id": 6010,
            "name": "奔18_100万",
            "customerId": 52885,
            "consultId": null,
            "money": 100.0,
            "remark": null,
            "status": 80,
            "closed": 1,
            "deleted": null,
            "creatorId": -1,
            "expectPayTime": null,
            "createTime": "2017-03-20 19:03:31",
            "updaterId": null,
            "updateTime": null,
            "followId": null,
            "source": null,
            "preferenceCodes": null,
            "investmentType": null,
            "realName": "奔18",
            "userId": 1781,
            "mobile": "18609099988",
            "sex": "男",
            "userName": null,
            "creatorName": "系统自建",
            "customerStatus": null,
            "customerTypeText": null,
            "sourceCode": "client.source.tel400",
            "deal": false,
            "dealText": null,
            "channelSource": "tel400",
            "confirmId": null,
            "confirmName": null,
            "reservationStatus": 4,
            "reservationStatusName": "已转订单",
            "channelSourceText": "400电话",
            "selectProductInfos": null,
            "productInfoModels": null,
            "selectedProductManagerModal": null,
            "productName": "腾云资产-红杉5号股权投资专项资产",
            "productType": "pro_type_stock",
            "productTypeText": "私募股权",
            "statusText": "创建订单",
            "preferenceCodesText": null,
            "currencyCode": "CNY"
        }, {
            "id": 5904,
            "name": "奔4",
            "customerId": 49810,
            "consultId": null,
            "money": null,
            "remark": null,
            "status": 40,
            "closed": 1,
            "deleted": null,
            "creatorId": -1,
            "expectPayTime": null,
            "createTime": "2017-01-18 20:34:44",
            "updaterId": null,
            "updateTime": null,
            "followId": null,
            "source": null,
            "preferenceCodes": null,
            "investmentType": null,
            "realName": "奔4",
            "userId": 1781,
            "mobile": "18907558180",
            "sex": "男",
            "userName": null,
            "creatorName": "系统自建",
            "customerStatus": null,
            "customerTypeText": null,
            "sourceCode": "front.zcmall",
            "deal": false,
            "dealText": null,
            "channelSource": "baidu",
            "confirmId": null,
            "confirmName": null,
            "reservationStatus": null,
            "reservationStatusName": "未预约",
            "channelSourceText": null,
            "selectProductInfos": null,
            "productInfoModels": null,
            "selectedProductManagerModal": null,
            "productName": null,
            "productType": null,
            "productTypeText": "",
            "statusText": "明确意向",
            "preferenceCodesText": null,
            "currencyCode": null
        }],
        "map": null
    }
}
